[
  {
    "id": 67,
    "name": "Tillabéri Region",
    "country_code": "NE",
    "fips_code": "09",
    "iso2": "6",
    "type": null,
    "latitude": 14.64895250,
    "longitude": 2.14502450,
    "created_at": "2019-10-05 23:18:36",
    "updated_at": "2020-12-21 21:20:24",
    "flag": 1,
    "wikiDataId": "Q861914",
    "country_id": 160
  },
  {
    "id": 68,
    "name": "Dosso Region",
    "country_code": "NE",
    "fips_code": "03",
    "iso2": "3",
    "type": null,
    "latitude": 13.15139470,
    "longitude": 3.41955270,
    "created_at": "2019-10-05 23:18:36",
    "updated_at": "2020-12-21 21:20:24",
    "flag": 1,
    "wikiDataId": "Q850055",
    "country_id": 160
  },
  {
    "id": 69,
    "name": "Zinder Region",
    "country_code": "NE",
    "fips_code": "07",
    "iso2": "7",
    "type": null,
    "latitude": 15.17188810,
    "longitude": 10.26001250,
    "created_at": "2019-10-05 23:18:36",
    "updated_at": "2020-12-21 21:20:24",
    "flag": 1,
    "wikiDataId": "Q204367",
    "country_id": 160
  },
  {
    "id": 70,
    "name": "Maradi Region",
    "country_code": "NE",
    "fips_code": "04",
    "iso2": "4",
    "type": null,
    "latitude": 13.80180740,
    "longitude": 7.43813550,
    "created_at": "2019-10-05 23:18:36",
    "updated_at": "2020-12-21 21:20:24",
    "flag": 1,
    "wikiDataId": "Q850036",
    "country_id": 160
  },
  {
    "id": 71,
    "name": "Agadez Region",
    "country_code": "NE",
    "fips_code": "01",
    "iso2": "1",
    "type": null,
    "latitude": 20.66707520,
    "longitude": 12.07182810,
    "created_at": "2019-10-05 23:18:36",
    "updated_at": "2020-12-21 21:20:24",
    "flag": 1,
    "wikiDataId": "Q389944",
    "country_id": 160
  },
  {
    "id": 72,
    "name": "Diffa Region",
    "country_code": "NE",
    "fips_code": "02",
    "iso2": "2",
    "type": null,
    "latitude": 13.67686470,
    "longitude": 12.71351210,
    "created_at": "2019-10-05 23:18:36",
    "updated_at": "2020-12-21 21:20:24",
    "flag": 1,
    "wikiDataId": "Q1053302",
    "country_id": 160
  },
  {
    "id": 73,
    "name": "Tahoua Region",
    "country_code": "NE",
    "fips_code": "06",
    "iso2": "5",
    "type": null,
    "latitude": 16.09025430,
    "longitude": 5.39395510,
    "created_at": "2019-10-05 23:18:36",
    "updated_at": "2020-12-21 21:20:24",
    "flag": 1,
    "wikiDataId": "Q871083",
    "country_id": 160
  },
  {
    "id": 248,
    "name": "Tombouctou Region",
    "country_code": "ML",
    "fips_code": "08",
    "iso2": "6",
    "type": null,
    "latitude": 21.05267060,
    "longitude": -3.74350900,
    "created_at": "2019-10-05 23:18:36",
    "updated_at": "2020-12-21 21:20:23",
    "flag": 1,
    "wikiDataId": "Q339462",
    "country_id": 134
  },
  {
    "id": 249,
    "name": "Ségou Region",
    "country_code": "ML",
    "fips_code": "05",
    "iso2": "4",
    "type": null,
    "latitude": 13.83944560,
    "longitude": -6.06791940,
    "created_at": "2019-10-05 23:18:36",
    "updated_at": "2020-12-21 21:20:23",
    "flag": 1,
    "wikiDataId": "Q656845",
    "country_id": 134
  },
  {
    "id": 250,
    "name": "Koulikoro Region",
    "country_code": "ML",
    "fips_code": "07",
    "iso2": "2",
    "type": null,
    "latitude": 13.80180740,
    "longitude": -7.43813550,
    "created_at": "2019-10-05 23:18:36",
    "updated_at": "2020-12-21 21:20:23",
    "flag": 1,
    "wikiDataId": "Q287789",
    "country_id": 134
  },
  {
    "id": 251,
    "name": "Ménaka Region",
    "country_code": "ML",
    "fips_code": "07",
    "iso2": "9",
    "type": null,
    "latitude": 15.91564210,
    "longitude": 2.39617400,
    "created_at": "2019-10-05 23:18:36",
    "updated_at": "2020-12-21 21:20:23",
    "flag": 1,
    "wikiDataId": "Q3455550",
    "country_id": 134
  },
  {
    "id": 252,
    "name": "Kayes Region",
    "country_code": "ML",
    "fips_code": "03",
    "iso2": "1",
    "type": null,
    "latitude": 14.08183080,
    "longitude": -9.90181310,
    "created_at": "2019-10-05 23:18:36",
    "updated_at": "2020-12-21 21:20:23",
    "flag": 1,
    "wikiDataId": "Q332113",
    "country_id": 134
  },
  {
    "id": 253,
    "name": "Bamako",
    "country_code": "ML",
    "fips_code": "01",
    "iso2": "BKO",
    "type": null,
    "latitude": 12.63923160,
    "longitude": -8.00288920,
    "created_at": "2019-10-05 23:18:36",
    "updated_at": "2020-12-21 21:20:23",
    "flag": 1,
    "wikiDataId": "Q3703",
    "country_id": 134
  },
  {
    "id": 254,
    "name": "Sikasso Region",
    "country_code": "ML",
    "fips_code": "06",
    "iso2": "3",
    "type": null,
    "latitude": 10.89051860,
    "longitude": -7.43813550,
    "created_at": "2019-10-05 23:18:36",
    "updated_at": "2020-12-21 21:20:23",
    "flag": 1,
    "wikiDataId": "Q461298",
    "country_id": 134
  },
  {
    "id": 255,
    "name": "Mopti Region",
    "country_code": "ML",
    "fips_code": "04",
    "iso2": "5",
    "type": null,
    "latitude": 14.63380390,
    "longitude": -3.41955270,
    "created_at": "2019-10-05 23:18:36",
    "updated_at": "2020-12-21 21:20:23",
    "flag": 1,
    "wikiDataId": "Q214155",
    "country_id": 134
  },
  {
    "id": 256,
    "name": "Taoudénit Region",
    "country_code": "ML",
    "fips_code": "04",
    "iso2": "10",
    "type": null,
    "latitude": 22.67641320,
    "longitude": -3.97891430,
    "created_at": "2019-10-05 23:18:36",
    "updated_at": "2020-12-21 21:20:23",
    "flag": 1,
    "wikiDataId": "Q2424657",
    "country_id": 134
  },
  {
    "id": 257,
    "name": "Kidal Region",
    "country_code": "ML",
    "fips_code": "10",
    "iso2": "8",
    "type": null,
    "latitude": 18.79868320,
    "longitude": 1.83183340,
    "created_at": "2019-10-05 23:18:36",
    "updated_at": "2020-12-21 21:20:23",
    "flag": 1,
    "wikiDataId": "Q338988",
    "country_id": 134
  },
  {
    "id": 258,
    "name": "Gao Region",
    "country_code": "ML",
    "fips_code": "09",
    "iso2": "7",
    "type": null,
    "latitude": 16.90663320,
    "longitude": 1.52086240,
    "created_at": "2019-10-05 23:18:36",
    "updated_at": "2020-12-21 21:20:23",
    "flag": 1,
    "wikiDataId": "Q332392",
    "country_id": 134
  },
  {
    "id": 473,
    "name": "Dakar",
    "country_code": "SN",
    "fips_code": "01",
    "iso2": "DK",
    "type": null,
    "latitude": 14.71667700,
    "longitude": -17.46768610,
    "created_at": "2019-10-05 23:18:37",
    "updated_at": "2020-12-21 21:20:25",
    "flag": 1,
    "wikiDataId": "Q856268",
    "country_id": 195
  },
  {
    "id": 474,
    "name": "Kolda",
    "country_code": "SN",
    "fips_code": "11",
    "iso2": "KD",
    "type": null,
    "latitude": 12.91074950,
    "longitude": -14.95056710,
    "created_at": "2019-10-05 23:18:37",
    "updated_at": "2020-12-21 21:20:25",
    "flag": 1,
    "wikiDataId": "Q738081",
    "country_id": 195
  },
  {
    "id": 475,
    "name": "Kaffrine",
    "country_code": "SN",
    "fips_code": "16",
    "iso2": "KA",
    "type": null,
    "latitude": 14.10520200,
    "longitude": -15.54157550,
    "created_at": "2019-10-05 23:18:37",
    "updated_at": "2020-12-21 21:20:25",
    "flag": 1,
    "wikiDataId": "Q1059694",
    "country_id": 195
  },
  {
    "id": 476,
    "name": "Matam",
    "country_code": "SN",
    "fips_code": "15",
    "iso2": "MT",
    "type": null,
    "latitude": 15.66002250,
    "longitude": -13.25769060,
    "created_at": "2019-10-05 23:18:37",
    "updated_at": "2020-12-21 21:20:25",
    "flag": 1,
    "wikiDataId": "Q856275",
    "country_id": 195
  },
  {
    "id": 477,
    "name": "Saint-Louis",
    "country_code": "SN",
    "fips_code": "14",
    "iso2": "SL",
    "type": null,
    "latitude": 38.62700250,
    "longitude": -90.19940420,
    "created_at": "2019-10-05 23:18:37",
    "updated_at": "2020-12-21 21:20:25",
    "flag": 1,
    "wikiDataId": "Q178872",
    "country_id": 195
  },
  {
    "id": 478,
    "name": "Ziguinchor",
    "country_code": "SN",
    "fips_code": "12",
    "iso2": "ZG",
    "type": null,
    "latitude": 12.56414790,
    "longitude": -16.26398250,
    "created_at": "2019-10-05 23:18:37",
    "updated_at": "2020-12-21 21:20:25",
    "flag": 1,
    "wikiDataId": "Q822692",
    "country_id": 195
  },
  {
    "id": 479,
    "name": "Fatick",
    "country_code": "SN",
    "fips_code": "09",
    "iso2": "FK",
    "type": null,
    "latitude": 14.33901670,
    "longitude": -16.41114250,
    "created_at": "2019-10-05 23:18:37",
    "updated_at": "2020-12-21 21:20:25",
    "flag": 1,
    "wikiDataId": "Q856282",
    "country_id": 195
  },
  {
    "id": 480,
    "name": "Diourbel Region",
    "country_code": "SN",
    "fips_code": "03",
    "iso2": "DB",
    "type": null,
    "latitude": 14.72830850,
    "longitude": -16.25221430,
    "created_at": "2019-10-05 23:18:37",
    "updated_at": "2020-12-21 21:20:25",
    "flag": 1,
    "wikiDataId": "Q856261",
    "country_id": 195
  },
  {
    "id": 481,
    "name": "Kédougou",
    "country_code": "SN",
    "fips_code": "17",
    "iso2": "KE",
    "type": null,
    "latitude": 12.56046070,
    "longitude": -12.17470770,
    "created_at": "2019-10-05 23:18:37",
    "updated_at": "2020-12-21 21:20:25",
    "flag": 1,
    "wikiDataId": "Q1046666",
    "country_id": 195
  },
  {
    "id": 482,
    "name": "Sédhiou",
    "country_code": "SN",
    "fips_code": "18",
    "iso2": "SE",
    "type": null,
    "latitude": 12.70460400,
    "longitude": -15.55623040,
    "created_at": "2019-10-05 23:18:37",
    "updated_at": "2020-12-21 21:20:25",
    "flag": 1,
    "wikiDataId": "Q589848",
    "country_id": 195
  },
  {
    "id": 483,
    "name": "Kaolack",
    "country_code": "SN",
    "fips_code": "10",
    "iso2": "KL",
    "type": null,
    "latitude": 14.16520830,
    "longitude": -16.07577490,
    "created_at": "2019-10-05 23:18:37",
    "updated_at": "2020-12-21 21:20:25",
    "flag": 1,
    "wikiDataId": "Q847671",
    "country_id": 195
  },
  {
    "id": 484,
    "name": "Thiès Region",
    "country_code": "SN",
    "fips_code": "07",
    "iso2": "TH",
    "type": null,
    "latitude": 14.79100520,
    "longitude": -16.93586040,
    "created_at": "2019-10-05 23:18:37",
    "updated_at": "2020-12-21 21:20:25",
    "flag": 1,
    "wikiDataId": "Q847682",
    "country_id": 195
  },
  {
    "id": 485,
    "name": "Louga",
    "country_code": "SN",
    "fips_code": "13",
    "iso2": "LG",
    "type": null,
    "latitude": 15.61417680,
    "longitude": -16.22868000,
    "created_at": "2019-10-05 23:18:37",
    "updated_at": "2020-12-21 21:20:25",
    "flag": 1,
    "wikiDataId": "Q738061",
    "country_id": 195
  },
  {
    "id": 486,
    "name": "Tambacounda Region",
    "country_code": "SN",
    "fips_code": "05",
    "iso2": "TC",
    "type": null,
    "latitude": 13.56190110,
    "longitude": -13.17403480,
    "created_at": "2019-10-05 23:18:37",
    "updated_at": "2020-12-21 21:20:25",
    "flag": 1,
    "wikiDataId": "Q848554",
    "country_id": 195
  },
  {
    "id": 1252,
    "name": "Sangha-Mbaéré",
    "country_code": "CF",
    "fips_code": "16",
    "iso2": "SE",
    "type": null,
    "latitude": 3.43686070,
    "longitude": 16.34637910,
    "created_at": "2019-10-05 23:18:41",
    "updated_at": "2020-12-21 21:20:21",
    "flag": 1,
    "wikiDataId": "Q856237",
    "country_id": 42
  },
  {
    "id": 1253,
    "name": "Nana-Grébizi Economic Prefecture",
    "country_code": "CF",
    "fips_code": "15",
    "iso2": "KB",
    "type": null,
    "latitude": 7.18486070,
    "longitude": 19.37832060,
    "created_at": "2019-10-05 23:18:41",
    "updated_at": "2020-12-21 21:20:21",
    "flag": 1,
    "wikiDataId": "Q856227",
    "country_id": 42
  },
  {
    "id": 1254,
    "name": "Ouham Prefecture",
    "country_code": "CF",
    "fips_code": "12",
    "iso2": "AC",
    "type": null,
    "latitude": 7.09091100,
    "longitude": 17.66888700,
    "created_at": "2019-10-05 23:18:41",
    "updated_at": "2020-12-21 21:20:21",
    "flag": 1,
    "wikiDataId": "Q726620",
    "country_id": 42
  },
  {
    "id": 1255,
    "name": "Ombella-M'Poko Prefecture",
    "country_code": "CF",
    "fips_code": "17",
    "iso2": "MP",
    "type": null,
    "latitude": 5.11888250,
    "longitude": 18.42760470,
    "created_at": "2019-10-05 23:18:41",
    "updated_at": "2020-12-21 21:20:21",
    "flag": 1,
    "wikiDataId": "Q378970",
    "country_id": 42
  },
  {
    "id": 1256,
    "name": "Lobaye Prefecture",
    "country_code": "CF",
    "fips_code": "07",
    "iso2": "LB",
    "type": null,
    "latitude": 4.35259810,
    "longitude": 17.47951730,
    "created_at": "2019-10-05 23:18:41",
    "updated_at": "2020-12-21 21:20:21",
    "flag": 1,
    "wikiDataId": "Q821037",
    "country_id": 42
  },
  {
    "id": 1257,
    "name": "Mambéré-Kadéï",
    "country_code": "CF",
    "fips_code": "04",
    "iso2": "HS",
    "type": null,
    "latitude": 4.70556530,
    "longitude": 15.96998780,
    "created_at": "2019-10-05 23:18:41",
    "updated_at": "2020-12-21 21:20:21",
    "flag": 1,
    "wikiDataId": "Q848567",
    "country_id": 42
  },
  {
    "id": 1258,
    "name": "Haut-Mbomou Prefecture",
    "country_code": "CF",
    "fips_code": "05",
    "iso2": "HM",
    "type": null,
    "latitude": 6.25371340,
    "longitude": 25.47335540,
    "created_at": "2019-10-05 23:18:41",
    "updated_at": "2020-12-21 21:20:21",
    "flag": 1,
    "wikiDataId": "Q848578",
    "country_id": 42
  },
  {
    "id": 1259,
    "name": "Bamingui-Bangoran Prefecture",
    "country_code": "CF",
    "fips_code": "01",
    "iso2": "BB",
    "type": null,
    "latitude": 8.27334550,
    "longitude": 20.71224650,
    "created_at": "2019-10-05 23:18:41",
    "updated_at": "2020-12-21 21:20:21",
    "flag": 1,
    "wikiDataId": "Q741025",
    "country_id": 42
  },
  {
    "id": 1260,
    "name": "Nana-Mambéré Prefecture",
    "country_code": "CF",
    "fips_code": "09",
    "iso2": "NM",
    "type": null,
    "latitude": 5.69321350,
    "longitude": 15.21948080,
    "created_at": "2019-10-05 23:18:41",
    "updated_at": "2020-12-21 21:20:21",
    "flag": 1,
    "wikiDataId": "Q742455",
    "country_id": 42
  },
  {
    "id": 1261,
    "name": "Vakaga Prefecture",
    "country_code": "CF",
    "fips_code": "14",
    "iso2": "VK",
    "type": null,
    "latitude": 9.51132960,
    "longitude": 22.23840170,
    "created_at": "2019-10-05 23:18:41",
    "updated_at": "2020-12-21 21:20:21",
    "flag": 1,
    "wikiDataId": "Q848585",
    "country_id": 42
  },
  {
    "id": 1262,
    "name": "Bangui",
    "country_code": "CF",
    "fips_code": "18",
    "iso2": "BGF",
    "type": null,
    "latitude": 4.39467350,
    "longitude": 18.55818990,
    "created_at": "2019-10-05 23:18:41",
    "updated_at": "2020-12-21 21:20:21",
    "flag": 1,
    "wikiDataId": "Q3832",
    "country_id": 42
  },
  {
    "id": 1263,
    "name": "Kémo Prefecture",
    "country_code": "CF",
    "fips_code": "06",
    "iso2": "KG",
    "type": null,
    "latitude": 5.88677940,
    "longitude": 19.37832060,
    "created_at": "2019-10-05 23:18:41",
    "updated_at": "2020-12-21 21:20:21",
    "flag": 1,
    "wikiDataId": "Q848572",
    "country_id": 42
  },
  {
    "id": 1264,
    "name": "Basse-Kotto Prefecture",
    "country_code": "CF",
    "fips_code": "02",
    "iso2": "BK",
    "type": null,
    "latitude": 4.87193190,
    "longitude": 21.28450250,
    "created_at": "2019-10-05 23:18:41",
    "updated_at": "2020-12-21 21:20:21",
    "flag": 1,
    "wikiDataId": "Q810484",
    "country_id": 42
  },
  {
    "id": 1265,
    "name": "Ouaka Prefecture",
    "country_code": "CF",
    "fips_code": "11",
    "iso2": "UK",
    "type": null,
    "latitude": 6.31682160,
    "longitude": 20.71224650,
    "created_at": "2019-10-05 23:18:41",
    "updated_at": "2020-12-21 21:20:21",
    "flag": 1,
    "wikiDataId": "Q848560",
    "country_id": 42
  },
  {
    "id": 1266,
    "name": "Mbomou Prefecture",
    "country_code": "CF",
    "fips_code": "08",
    "iso2": "MB",
    "type": null,
    "latitude": 5.55683700,
    "longitude": 23.76328280,
    "created_at": "2019-10-05 23:18:41",
    "updated_at": "2020-12-21 21:20:21",
    "flag": 1,
    "wikiDataId": "Q848582",
    "country_id": 42
  },
  {
    "id": 1267,
    "name": "Ouham-Pendé Prefecture",
    "country_code": "CF",
    "fips_code": "13",
    "iso2": "OP",
    "type": null,
    "latitude": 6.48509840,
    "longitude": 16.15809370,
    "created_at": "2019-10-05 23:18:41",
    "updated_at": "2020-12-21 21:20:21",
    "flag": 1,
    "wikiDataId": "Q848591",
    "country_id": 42
  },
  {
    "id": 1268,
    "name": "Haute-Kotto Prefecture",
    "country_code": "CF",
    "fips_code": "03",
    "iso2": "HK",
    "type": null,
    "latitude": 7.79643790,
    "longitude": 23.38235450,
    "created_at": "2019-10-05 23:18:41",
    "updated_at": "2020-12-21 21:20:21",
    "flag": 1,
    "wikiDataId": "Q848596",
    "country_id": 42
  },
  {
    "id": 2575,
    "name": "Centrale Region",
    "country_code": "TG",
    "fips_code": "22",
    "iso2": "C",
    "type": null,
    "latitude": 8.65860290,
    "longitude": 1.05861350,
    "created_at": "2019-10-05 23:18:48",
    "updated_at": "2020-12-21 21:20:26",
    "flag": 1,
    "wikiDataId": "Q316220",
    "country_id": 220
  },
  {
    "id": 2576,
    "name": "Maritime",
    "country_code": "TG",
    "fips_code": "24",
    "iso2": "M",
    "type": null,
    "latitude": 41.65514930,
    "longitude": -83.52784670,
    "created_at": "2019-10-05 23:18:48",
    "updated_at": "2020-12-21 21:20:26",
    "flag": 1,
    "wikiDataId": "Q316291",
    "country_id": 220
  },
  {
    "id": 2577,
    "name": "Plateaux Region",
    "country_code": "TG",
    "fips_code": "25",
    "iso2": "P",
    "type": null,
    "latitude": 7.61013780,
    "longitude": 1.05861350,
    "created_at": "2019-10-05 23:18:48",
    "updated_at": "2020-12-21 21:20:26",
    "flag": 1,
    "wikiDataId": "Q316306",
    "country_id": 220
  },
  {
    "id": 2578,
    "name": "Savanes Region",
    "country_code": "TG",
    "fips_code": "26",
    "iso2": "S",
    "type": null,
    "latitude": 10.52917810,
    "longitude": 0.52578230,
    "created_at": "2019-10-05 23:18:48",
    "updated_at": "2020-12-21 21:20:21",
    "flag": 1,
    "wikiDataId": "Q279945",
    "country_id": 220
  },
  {
    "id": 2579,
    "name": "Kara Region",
    "country_code": "TG",
    "fips_code": "23",
    "iso2": "K",
    "type": null,
    "latitude": 9.72163930,
    "longitude": 1.05861350,
    "created_at": "2019-10-05 23:18:48",
    "updated_at": "2020-12-21 21:20:26",
    "flag": 1,
    "wikiDataId": "Q316216",
    "country_id": 220
  },
  {
    "id": 2625,
    "name": "Savanes Region",
    "country_code": "CI",
    "fips_code": "87",
    "iso2": "03",
    "type": null,
    "latitude": null,
    "longitude": null,
    "created_at": "2019-10-05 23:18:48",
    "updated_at": "2019-10-05 23:18:48",
    "flag": 1,
    "wikiDataId": "Q853460",
    "country_id": 54
  },
  {
    "id": 2626,
    "name": "Agnéby",
    "country_code": "CI",
    "fips_code": "74",
    "iso2": "16",
    "type": null,
    "latitude": 5.32245030,
    "longitude": -4.34495290,
    "created_at": "2019-10-05 23:18:49",
    "updated_at": "2020-12-21 21:20:21",
    "flag": 1,
    "wikiDataId": "Q395166",
    "country_id": 54
  },
  {
    "id": 2627,
    "name": "Lagunes District",
    "country_code": "CI",
    "fips_code": "82",
    "iso2": "LG",
    "type": null,
    "latitude": 5.88273340,
    "longitude": -4.23333550,
    "created_at": "2019-10-05 23:18:49",
    "updated_at": "2020-12-21 21:20:21",
    "flag": 1,
    "wikiDataId": "Q20980365",
    "country_id": 54
  },
  {
    "id": 2628,
    "name": "Sud-Bandama",
    "country_code": "CI",
    "fips_code": "88",
    "iso2": "15",
    "type": null,
    "latitude": 5.53570830,
    "longitude": -5.56172790,
    "created_at": "2019-10-05 23:18:49",
    "updated_at": "2020-12-21 21:20:21",
    "flag": 1,
    "wikiDataId": "Q845713",
    "country_id": 54
  },
  {
    "id": 2629,
    "name": "Montagnes District",
    "country_code": "CI",
    "fips_code": "78",
    "iso2": "MG",
    "type": null,
    "latitude": 7.37623730,
    "longitude": -7.43813550,
    "created_at": "2019-10-05 23:18:49",
    "updated_at": "2020-12-21 21:20:21",
    "flag": 1,
    "wikiDataId": "Q20980366",
    "country_id": 54
  },
  {
    "id": 2630,
    "name": "Moyen-Comoé",
    "country_code": "CI",
    "fips_code": "85",
    "iso2": "05",
    "type": null,
    "latitude": 6.65149170,
    "longitude": -3.50034540,
    "created_at": "2019-10-05 23:18:49",
    "updated_at": "2020-12-21 21:20:21",
    "flag": 1,
    "wikiDataId": "Q303645",
    "country_id": 54
  },
  {
    "id": 2631,
    "name": "Marahoué Region",
    "country_code": "CI",
    "fips_code": "83",
    "iso2": "12",
    "type": null,
    "latitude": 6.88462070,
    "longitude": -5.89871390,
    "created_at": "2019-10-05 23:18:49",
    "updated_at": "2020-12-21 21:20:21",
    "flag": 1,
    "wikiDataId": "Q839083",
    "country_id": 54
  },
  {
    "id": 2632,
    "name": "Lacs District",
    "country_code": "CI",
    "fips_code": "81",
    "iso2": "LC",
    "type": null,
    "latitude": 48.19801690,
    "longitude": -80.45644120,
    "created_at": "2019-10-05 23:18:49",
    "updated_at": "2020-12-21 21:20:21",
    "flag": 1,
    "wikiDataId": "Q20980363",
    "country_id": 54
  },
  {
    "id": 2633,
    "name": "Fromager",
    "country_code": "CI",
    "fips_code": "79",
    "iso2": "18",
    "type": null,
    "latitude": 45.54502130,
    "longitude": -73.60462230,
    "created_at": "2019-10-05 23:18:49",
    "updated_at": "2020-12-21 21:20:21",
    "flag": 1,
    "wikiDataId": "Q818774",
    "country_id": 54
  },
  {
    "id": 2634,
    "name": "Abidjan",
    "country_code": "CI",
    "fips_code": "93",
    "iso2": "AB",
    "type": null,
    "latitude": 5.35995170,
    "longitude": -4.00825630,
    "created_at": "2019-10-05 23:18:49",
    "updated_at": "2020-12-21 21:20:21",
    "flag": 1,
    "wikiDataId": "Q1515",
    "country_id": 54
  },
  {
    "id": 2635,
    "name": "Bas-Sassandra Region",
    "country_code": "CI",
    "fips_code": "76",
    "iso2": "09",
    "type": null,
    "latitude": 5.35679160,
    "longitude": -6.74939930,
    "created_at": "2019-10-05 23:18:49",
    "updated_at": "2020-12-21 21:20:21",
    "flag": 1,
    "wikiDataId": "Q809733",
    "country_id": 54
  },
  {
    "id": 2636,
    "name": "Bafing Region",
    "country_code": "CI",
    "fips_code": "75",
    "iso2": "17",
    "type": null,
    "latitude": 8.32520470,
    "longitude": -7.52472430,
    "created_at": "2019-10-05 23:18:49",
    "updated_at": "2020-12-21 21:20:21",
    "flag": 1,
    "wikiDataId": "Q799800",
    "country_id": 54
  },
  {
    "id": 2637,
    "name": "Vallée du Bandama District",
    "country_code": "CI",
    "fips_code": "90",
    "iso2": "VB",
    "type": null,
    "latitude": 8.27897800,
    "longitude": -4.89356270,
    "created_at": "2019-10-05 23:18:49",
    "updated_at": "2020-12-21 21:20:21",
    "flag": 1,
    "wikiDataId": "Q21002356",
    "country_id": 54
  },
  {
    "id": 2638,
    "name": "Haut-Sassandra",
    "country_code": "CI",
    "fips_code": "80",
    "iso2": "02",
    "type": null,
    "latitude": 6.87578480,
    "longitude": -6.57833870,
    "created_at": "2019-10-05 23:18:49",
    "updated_at": "2020-12-21 21:20:21",
    "flag": 1,
    "wikiDataId": "Q845709",
    "country_id": 54
  },
  {
    "id": 2639,
    "name": "Lagunes region",
    "country_code": "CI",
    "fips_code": "82",
    "iso2": "01",
    "type": null,
    "latitude": 5.88273340,
    "longitude": -4.23333550,
    "created_at": "2019-10-05 23:18:49",
    "updated_at": "2020-12-21 21:20:21",
    "flag": 1,
    "wikiDataId": "Q639491",
    "country_id": 54
  },
  {
    "id": 2640,
    "name": "Lacs Region",
    "country_code": "CI",
    "fips_code": "81",
    "iso2": "07",
    "type": null,
    "latitude": 47.73958660,
    "longitude": -70.41866520,
    "created_at": "2019-10-05 23:18:49",
    "updated_at": "2020-12-21 21:20:21",
    "flag": 1,
    "wikiDataId": "Q845706",
    "country_id": 54
  },
  {
    "id": 2641,
    "name": "Zanzan Region",
    "country_code": "CI",
    "fips_code": "92",
    "iso2": "ZZ",
    "type": null,
    "latitude": 8.82079040,
    "longitude": -3.41955270,
    "created_at": "2019-10-05 23:18:49",
    "updated_at": "2020-12-21 21:20:21",
    "flag": 1,
    "wikiDataId": "Q147081",
    "country_id": 54
  },
  {
    "id": 2642,
    "name": "Denguélé Region",
    "country_code": "CI",
    "fips_code": "77",
    "iso2": "10",
    "type": null,
    "latitude": 9.46623720,
    "longitude": -7.43813550,
    "created_at": "2019-10-05 23:18:49",
    "updated_at": "2020-12-21 21:20:21",
    "flag": 1,
    "wikiDataId": "Q729010",
    "country_id": 54
  },
  {
    "id": 2643,
    "name": "Bas-Sassandra District",
    "country_code": "CI",
    "fips_code": "76",
    "iso2": "BS",
    "type": null,
    "latitude": 5.27983560,
    "longitude": -6.15269850,
    "created_at": "2019-10-05 23:18:49",
    "updated_at": "2020-12-21 21:20:21",
    "flag": 1,
    "wikiDataId": "Q20980352",
    "country_id": 54
  },
  {
    "id": 2644,
    "name": "Denguélé District",
    "country_code": "CI",
    "fips_code": "77",
    "iso2": "DN",
    "type": null,
    "latitude": 48.07077630,
    "longitude": -68.56093410,
    "created_at": "2019-10-05 23:18:49",
    "updated_at": "2020-12-21 21:20:21",
    "flag": 1,
    "wikiDataId": "Q20980374",
    "country_id": 54
  },
  {
    "id": 2645,
    "name": "Dix-Huit Montagnes",
    "country_code": "CI",
    "fips_code": "78",
    "iso2": "06",
    "type": null,
    "latitude": 7.37623730,
    "longitude": -7.43813550,
    "created_at": "2019-10-05 23:18:49",
    "updated_at": "2020-12-21 21:20:21",
    "flag": 1,
    "wikiDataId": "Q820486",
    "country_id": 54
  },
  {
    "id": 2646,
    "name": "Moyen-Cavally",
    "country_code": "CI",
    "fips_code": "84",
    "iso2": "19",
    "type": null,
    "latitude": 6.52087930,
    "longitude": -7.61142170,
    "created_at": "2019-10-05 23:18:49",
    "updated_at": "2020-12-21 21:20:21",
    "flag": 1,
    "wikiDataId": "Q842499",
    "country_id": 54
  },
  {
    "id": 2647,
    "name": "Vallée du Bandama Region",
    "country_code": "CI",
    "fips_code": "90",
    "iso2": "04",
    "type": null,
    "latitude": 8.27897800,
    "longitude": -4.89356270,
    "created_at": "2019-10-05 23:18:49",
    "updated_at": "2020-12-21 21:20:21",
    "flag": 1,
    "wikiDataId": "Q845721",
    "country_id": 54
  },
  {
    "id": 2648,
    "name": "Sassandra-Marahoué District",
    "country_code": "CI",
    "fips_code": "96",
    "iso2": "SM",
    "type": null,
    "latitude": 6.88033480,
    "longitude": -6.23759470,
    "created_at": "2019-10-05 23:18:49",
    "updated_at": "2020-12-21 21:20:21",
    "flag": 1,
    "wikiDataId": "Q20365127",
    "country_id": 54
  },
  {
    "id": 2649,
    "name": "Worodougou",
    "country_code": "CI",
    "fips_code": "91",
    "iso2": "14",
    "type": null,
    "latitude": 8.25489620,
    "longitude": -6.57833870,
    "created_at": "2019-10-05 23:18:49",
    "updated_at": "2020-12-21 21:20:21",
    "flag": 1,
    "wikiDataId": "Q846056",
    "country_id": 54
  },
  {
    "id": 2650,
    "name": "Woroba District",
    "country_code": "CI",
    "fips_code": "97",
    "iso2": "WR",
    "type": null,
    "latitude": 8.24913720,
    "longitude": -6.92091350,
    "created_at": "2019-10-05 23:18:49",
    "updated_at": "2020-12-21 21:20:21",
    "flag": 1,
    "wikiDataId": "Q20980371",
    "country_id": 54
  },
  {
    "id": 2651,
    "name": "Gôh-Djiboua District",
    "country_code": "CI",
    "fips_code": "95",
    "iso2": "GD",
    "type": null,
    "latitude": 5.87113930,
    "longitude": -5.56172790,
    "created_at": "2019-10-05 23:18:49",
    "updated_at": "2020-12-21 21:20:21",
    "flag": 1,
    "wikiDataId": "Q21003640",
    "country_id": 54
  },
  {
    "id": 2652,
    "name": "Sud-Comoé",
    "country_code": "CI",
    "fips_code": "89",
    "iso2": "13",
    "type": null,
    "latitude": 5.55279300,
    "longitude": -3.25836260,
    "created_at": "2019-10-05 23:18:49",
    "updated_at": "2020-12-21 21:20:21",
    "flag": 1,
    "wikiDataId": "Q842495",
    "country_id": 54
  },
  {
    "id": 2653,
    "name": "Yamoussoukro",
    "country_code": "CI",
    "fips_code": "98",
    "iso2": "YM",
    "type": null,
    "latitude": 6.82762280,
    "longitude": -5.28934330,
    "created_at": "2019-10-05 23:18:49",
    "updated_at": "2020-12-21 21:20:21",
    "flag": 1,
    "wikiDataId": "Q3768",
    "country_id": 54
  },
  {
    "id": 2654,
    "name": "Comoé District",
    "country_code": "CI",
    "fips_code": "94",
    "iso2": "CM",
    "type": null,
    "latitude": 5.55279300,
    "longitude": -3.25836260,
    "created_at": "2019-10-05 23:18:49",
    "updated_at": "2020-12-21 21:20:21",
    "flag": 1,
    "wikiDataId": "Q16629374",
    "country_id": 54
  },
  {
    "id": 2655,
    "name": "N'zi-Comoé",
    "country_code": "CI",
    "fips_code": "86",
    "iso2": "11",
    "type": null,
    "latitude": 7.24567490,
    "longitude": -4.23333550,
    "created_at": "2019-10-05 23:18:49",
    "updated_at": "2020-12-21 21:20:21",
    "flag": 1,
    "wikiDataId": "Q842491",
    "country_id": 54
  },
  {
    "id": 2656,
    "name": "Far North",
    "country_code": "CM",
    "fips_code": "12",
    "iso2": "EN",
    "type": null,
    "latitude": 66.76134510,
    "longitude": 124.12375300,
    "created_at": "2019-10-05 23:18:49",
    "updated_at": "2020-12-21 21:20:21",
    "flag": 1,
    "wikiDataId": "Q823976",
    "country_id": 38
  },
  {
    "id": 2657,
    "name": "Northwest",
    "country_code": "CM",
    "fips_code": "07",
    "iso2": "NW",
    "type": null,
    "latitude": 36.37118570,
    "longitude": -94.19346060,
    "created_at": "2019-10-05 23:18:49",
    "updated_at": "2020-12-21 21:20:21",
    "flag": 1,
    "wikiDataId": "Q823946",
    "country_id": 38
  },
  {
    "id": 2658,
    "name": "Southwest",
    "country_code": "CM",
    "fips_code": "09",
    "iso2": "SW",
    "type": null,
    "latitude": 36.19088130,
    "longitude": -95.88974480,
    "created_at": "2019-10-05 23:18:49",
    "updated_at": "2020-12-21 21:20:21",
    "flag": 1,
    "wikiDataId": "Q607499",
    "country_id": 38
  },
  {
    "id": 2659,
    "name": "South",
    "country_code": "CM",
    "fips_code": "14",
    "iso2": "SU",
    "type": null,
    "latitude": 37.63159500,
    "longitude": -97.34584090,
    "created_at": "2019-10-05 23:18:49",
    "updated_at": "2020-12-21 21:20:21",
    "flag": 1,
    "wikiDataId": "Q857122",
    "country_id": 38
  },
  {
    "id": 2660,
    "name": "Centre",
    "country_code": "CM",
    "fips_code": "11",
    "iso2": "CE",
    "type": null,
    "latitude": null,
    "longitude": null,
    "created_at": "2019-10-05 23:18:49",
    "updated_at": "2019-10-05 23:18:49",
    "flag": 1,
    "wikiDataId": "Q739951",
    "country_id": 38
  },
  {
    "id": 2661,
    "name": "East",
    "country_code": "CM",
    "fips_code": "04",
    "iso2": "ES",
    "type": null,
    "latitude": 39.01853360,
    "longitude": -94.27924110,
    "created_at": "2019-10-05 23:18:49",
    "updated_at": "2020-12-21 21:20:21",
    "flag": 1,
    "wikiDataId": "Q845168",
    "country_id": 38
  },
  {
    "id": 2662,
    "name": "Littoral",
    "country_code": "CM",
    "fips_code": "05",
    "iso2": "LT",
    "type": null,
    "latitude": 48.46227570,
    "longitude": -68.51780710,
    "created_at": "2019-10-05 23:18:49",
    "updated_at": "2020-12-21 21:20:21",
    "flag": 1,
    "wikiDataId": "Q845172",
    "country_id": 38
  },
  {
    "id": 2663,
    "name": "Adamawa",
    "country_code": "CM",
    "fips_code": "10",
    "iso2": "AD",
    "type": null,
    "latitude": 9.32647510,
    "longitude": 12.39838530,
    "created_at": "2019-10-05 23:18:49",
    "updated_at": "2020-12-21 21:20:21",
    "flag": 1,
    "wikiDataId": "Q351514",
    "country_id": 38
  },
  {
    "id": 2664,
    "name": "West",
    "country_code": "CM",
    "fips_code": "08",
    "iso2": "OU",
    "type": null,
    "latitude": 37.03649890,
    "longitude": -95.67059870,
    "created_at": "2019-10-05 23:18:49",
    "updated_at": "2020-12-21 21:20:21",
    "flag": 1,
    "wikiDataId": "Q165784",
    "country_id": 38
  },
  {
    "id": 2665,
    "name": "North",
    "country_code": "CM",
    "fips_code": "13",
    "iso2": "NO",
    "type": null,
    "latitude": 37.09024000,
    "longitude": -95.71289100,
    "created_at": "2019-10-05 23:18:49",
    "updated_at": "2020-12-21 21:20:21",
    "flag": 1,
    "wikiDataId": "Q502341",
    "country_id": 38
  },
  {
    "id": 2723,
    "name": "Woleu-Ntem Province",
    "country_code": "GA",
    "fips_code": "09",
    "iso2": "9",
    "type": null,
    "latitude": 2.29898270,
    "longitude": 11.44669140,
    "created_at": "2019-10-05 23:18:49",
    "updated_at": "2020-12-21 21:20:22",
    "flag": 1,
    "wikiDataId": "Q823800",
    "country_id": 79
  },
  {
    "id": 2724,
    "name": "Ogooué-Ivindo Province",
    "country_code": "GA",
    "fips_code": "06",
    "iso2": "6",
    "type": null,
    "latitude": 0.88183110,
    "longitude": 13.17403480,
    "created_at": "2019-10-05 23:18:49",
    "updated_at": "2020-12-21 21:20:22",
    "flag": 1,
    "wikiDataId": "Q823822",
    "country_id": 79
  },
  {
    "id": 2725,
    "name": "Nyanga Province",
    "country_code": "GA",
    "fips_code": "05",
    "iso2": "5",
    "type": null,
    "latitude": -2.88210330,
    "longitude": 11.16173560,
    "created_at": "2019-10-05 23:18:49",
    "updated_at": "2020-12-21 21:20:22",
    "flag": 1,
    "wikiDataId": "Q846017",
    "country_id": 79
  },
  {
    "id": 2726,
    "name": "Haut-Ogooué Province",
    "country_code": "GA",
    "fips_code": "02",
    "iso2": "2",
    "type": null,
    "latitude": -1.47625440,
    "longitude": 13.91439900,
    "created_at": "2019-10-05 23:18:49",
    "updated_at": "2020-12-21 21:20:22",
    "flag": 1,
    "wikiDataId": "Q654438",
    "country_id": 79
  },
  {
    "id": 2727,
    "name": "Estuaire Province",
    "country_code": "GA",
    "fips_code": "01",
    "iso2": "1",
    "type": null,
    "latitude": 0.44328640,
    "longitude": 10.08072980,
    "created_at": "2019-10-05 23:18:49",
    "updated_at": "2020-12-21 21:20:22",
    "flag": 1,
    "wikiDataId": "Q281109",
    "country_id": 79
  },
  {
    "id": 2728,
    "name": "Ogooué-Maritime Province",
    "country_code": "GA",
    "fips_code": "08",
    "iso2": "8",
    "type": null,
    "latitude": -1.34659750,
    "longitude": 9.72326730,
    "created_at": "2019-10-05 23:18:49",
    "updated_at": "2020-12-21 21:20:22",
    "flag": 1,
    "wikiDataId": "Q823751",
    "country_id": 79
  },
  {
    "id": 2729,
    "name": "Ogooué-Lolo Province",
    "country_code": "GA",
    "fips_code": "07",
    "iso2": "7",
    "type": null,
    "latitude": -0.88440930,
    "longitude": 12.43805810,
    "created_at": "2019-10-05 23:18:49",
    "updated_at": "2020-12-21 21:20:22",
    "flag": 1,
    "wikiDataId": "Q823762",
    "country_id": 79
  },
  {
    "id": 2730,
    "name": "Moyen-Ogooué Province",
    "country_code": "GA",
    "fips_code": "03",
    "iso2": "3",
    "type": null,
    "latitude": -0.44278400,
    "longitude": 10.43965600,
    "created_at": "2019-10-05 23:18:49",
    "updated_at": "2020-12-21 21:20:22",
    "flag": 1,
    "wikiDataId": "Q590802",
    "country_id": 79
  },
  {
    "id": 2731,
    "name": "Ngounié Province",
    "country_code": "GA",
    "fips_code": "04",
    "iso2": "4",
    "type": null,
    "latitude": -1.49303030,
    "longitude": 10.98070030,
    "created_at": "2019-10-05 23:18:49",
    "updated_at": "2020-12-21 21:20:22",
    "flag": 1,
    "wikiDataId": "Q823774",
    "country_id": 79
  },
  {
    "id": 2862,
    "name": "Plateaux Department",
    "country_code": "CG",
    "fips_code": "08",
    "iso2": "14",
    "type": null,
    "latitude": -2.06800880,
    "longitude": 15.40680790,
    "created_at": "2019-10-05 23:18:50",
    "updated_at": "2020-12-21 21:20:21",
    "flag": 1,
    "wikiDataId": "Q765370",
    "country_id": 50
  },
  {
    "id": 2863,
    "name": "Pointe-Noire",
    "country_code": "CG",
    "fips_code": "15",
    "iso2": "16",
    "type": null,
    "latitude": -4.76916230,
    "longitude": 11.86636200,
    "created_at": "2019-10-05 23:18:50",
    "updated_at": "2020-12-21 21:20:21",
    "flag": 1,
    "wikiDataId": "Q7208306",
    "country_id": 50
  },
  {
    "id": 2864,
    "name": "Cuvette Department",
    "country_code": "CG",
    "fips_code": "13",
    "iso2": "8",
    "type": null,
    "latitude": -0.28774460,
    "longitude": 16.15809370,
    "created_at": "2019-10-05 23:18:50",
    "updated_at": "2020-12-21 21:20:21",
    "flag": 1,
    "wikiDataId": "Q780884",
    "country_id": 50
  },
  {
    "id": 2865,
    "name": "Likouala Department",
    "country_code": "CG",
    "fips_code": "06",
    "iso2": "7",
    "type": null,
    "latitude": 2.04392400,
    "longitude": 17.66888700,
    "created_at": "2019-10-05 23:18:50",
    "updated_at": "2020-12-21 21:20:21",
    "flag": 1,
    "wikiDataId": "Q863554",
    "country_id": 50
  },
  {
    "id": 2866,
    "name": "Bouenza Department",
    "country_code": "CG",
    "fips_code": "01",
    "iso2": "11",
    "type": null,
    "latitude": -4.11280790,
    "longitude": 13.72891670,
    "created_at": "2019-10-05 23:18:50",
    "updated_at": "2020-12-21 21:20:21",
    "flag": 1,
    "wikiDataId": "Q827015",
    "country_id": 50
  },
  {
    "id": 2867,
    "name": "Kouilou Department",
    "country_code": "CG",
    "fips_code": "04",
    "iso2": "5",
    "type": null,
    "latitude": -4.14284130,
    "longitude": 11.88917210,
    "created_at": "2019-10-05 23:18:50",
    "updated_at": "2020-12-21 21:20:21",
    "flag": 1,
    "wikiDataId": "Q855327",
    "country_id": 50
  },
  {
    "id": 2868,
    "name": "Lékoumou Department",
    "country_code": "CG",
    "fips_code": "05",
    "iso2": "2",
    "type": null,
    "latitude": -3.17038200,
    "longitude": 13.35872880,
    "created_at": "2019-10-05 23:18:50",
    "updated_at": "2020-12-21 21:20:21",
    "flag": 1,
    "wikiDataId": "Q862753",
    "country_id": 50
  },
  {
    "id": 2869,
    "name": "Cuvette-Ouest Department",
    "country_code": "CG",
    "fips_code": "14",
    "iso2": "15",
    "type": null,
    "latitude": 0.14475500,
    "longitude": 14.47233010,
    "created_at": "2019-10-05 23:18:50",
    "updated_at": "2020-12-21 21:20:21",
    "flag": 1,
    "wikiDataId": "Q125711",
    "country_id": 50
  },
  {
    "id": 2870,
    "name": "Brazzaville",
    "country_code": "CG",
    "fips_code": "12",
    "iso2": "BZV",
    "type": null,
    "latitude": -4.26335970,
    "longitude": 15.24288530,
    "created_at": "2019-10-05 23:18:50",
    "updated_at": "2020-12-21 21:20:21",
    "flag": 1,
    "wikiDataId": "Q3844",
    "country_id": 50
  },
  {
    "id": 2871,
    "name": "Sangha Department",
    "country_code": "CG",
    "fips_code": "10",
    "iso2": "13",
    "type": null,
    "latitude": 1.46623280,
    "longitude": 15.40680790,
    "created_at": "2019-10-05 23:18:50",
    "updated_at": "2020-12-21 21:20:21",
    "flag": 1,
    "wikiDataId": "Q775410",
    "country_id": 50
  },
  {
    "id": 2872,
    "name": "Niari Department",
    "country_code": "CG",
    "fips_code": "07",
    "iso2": "9",
    "type": null,
    "latitude": -3.18427000,
    "longitude": 12.25479190,
    "created_at": "2019-10-05 23:18:50",
    "updated_at": "2020-12-21 21:20:21",
    "flag": 1,
    "wikiDataId": "Q969317",
    "country_id": 50
  },
  {
    "id": 2873,
    "name": "Pool Department",
    "country_code": "CG",
    "fips_code": "11",
    "iso2": "12",
    "type": null,
    "latitude": -3.77626280,
    "longitude": 14.84546190,
    "created_at": "2019-10-05 23:18:50",
    "updated_at": "2020-12-21 21:20:21",
    "flag": 1,
    "wikiDataId": "Q864647",
    "country_id": 50
  },
  {
    "id": 3070,
    "name": "Collines Department",
    "country_code": "BJ",
    "fips_code": "11",
    "iso2": "CO",
    "type": null,
    "latitude": 8.30222970,
    "longitude": 2.30244600,
    "created_at": "2019-10-05 23:18:52",
    "updated_at": "2020-12-21 21:20:20",
    "flag": 1,
    "wikiDataId": "Q29141",
    "country_id": 24
  },
  {
    "id": 3071,
    "name": "Kouffo Department",
    "country_code": "BJ",
    "fips_code": "12",
    "iso2": "KO",
    "type": null,
    "latitude": 7.00358940,
    "longitude": 1.75388170,
    "created_at": "2019-10-05 23:18:52",
    "updated_at": "2020-12-21 21:20:20",
    "flag": 1,
    "wikiDataId": "Q29173",
    "country_id": 24
  },
  {
    "id": 3072,
    "name": "Donga Department",
    "country_code": "BJ",
    "fips_code": "13",
    "iso2": "DO",
    "type": null,
    "latitude": 9.71918670,
    "longitude": 1.67606910,
    "created_at": "2019-10-05 23:18:52",
    "updated_at": "2020-12-21 21:20:20",
    "flag": 1,
    "wikiDataId": "Q29161",
    "country_id": 24
  },
  {
    "id": 3073,
    "name": "Zou Department",
    "country_code": "BJ",
    "fips_code": "18",
    "iso2": "ZO",
    "type": null,
    "latitude": 7.34692680,
    "longitude": 2.06651970,
    "created_at": "2019-10-05 23:18:52",
    "updated_at": "2020-12-21 21:20:20",
    "flag": 1,
    "wikiDataId": "Q29172",
    "country_id": 24
  },
  {
    "id": 3074,
    "name": "Plateau Department",
    "country_code": "BJ",
    "fips_code": "17",
    "iso2": "PL",
    "type": null,
    "latitude": 7.34451410,
    "longitude": 2.53960300,
    "created_at": "2019-10-05 23:18:52",
    "updated_at": "2020-12-21 21:20:20",
    "flag": 1,
    "wikiDataId": "Q32108",
    "country_id": 24
  },
  {
    "id": 3075,
    "name": "Mono Department",
    "country_code": "BJ",
    "fips_code": "15",
    "iso2": "MO",
    "type": null,
    "latitude": 37.92186080,
    "longitude": -118.95286450,
    "created_at": "2019-10-05 23:18:52",
    "updated_at": "2020-12-21 21:20:20",
    "flag": 1,
    "wikiDataId": "Q29135",
    "country_id": 24
  },
  {
    "id": 3076,
    "name": "Atakora Department",
    "country_code": "BJ",
    "fips_code": "08",
    "iso2": "AK",
    "type": null,
    "latitude": 10.79549310,
    "longitude": 1.67606910,
    "created_at": "2019-10-05 23:18:52",
    "updated_at": "2020-12-21 21:20:20",
    "flag": 1,
    "wikiDataId": "Q29154",
    "country_id": 24
  },
  {
    "id": 3077,
    "name": "Alibori Department",
    "country_code": "BJ",
    "fips_code": "07",
    "iso2": "AL",
    "type": null,
    "latitude": 10.96810930,
    "longitude": 2.77798130,
    "created_at": "2019-10-05 23:18:52",
    "updated_at": "2020-12-21 21:20:20",
    "flag": 1,
    "wikiDataId": "Q29165",
    "country_id": 24
  },
  {
    "id": 3078,
    "name": "Borgou Department",
    "country_code": "BJ",
    "fips_code": "10",
    "iso2": "BO",
    "type": null,
    "latitude": 9.53408640,
    "longitude": 2.77798130,
    "created_at": "2019-10-05 23:18:52",
    "updated_at": "2020-12-21 21:20:20",
    "flag": 1,
    "wikiDataId": "Q29136",
    "country_id": 24
  },
  {
    "id": 3079,
    "name": "Atlantique Department",
    "country_code": "BJ",
    "fips_code": "09",
    "iso2": "AQ",
    "type": null,
    "latitude": 6.65883910,
    "longitude": 2.22366670,
    "created_at": "2019-10-05 23:18:52",
    "updated_at": "2020-12-21 21:20:20",
    "flag": 1,
    "wikiDataId": "Q29147",
    "country_id": 24
  },
  {
    "id": 3080,
    "name": "Ouémé Department",
    "country_code": "BJ",
    "fips_code": "16",
    "iso2": "OU",
    "type": null,
    "latitude": 6.61481520,
    "longitude": 2.49999180,
    "created_at": "2019-10-05 23:18:52",
    "updated_at": "2020-12-21 21:20:20",
    "flag": 1,
    "wikiDataId": "Q29169",
    "country_id": 24
  },
  {
    "id": 3081,
    "name": "Littoral Department",
    "country_code": "BJ",
    "fips_code": "14",
    "iso2": "LI",
    "type": null,
    "latitude": 6.38069730,
    "longitude": 2.44063870,
    "created_at": "2019-10-05 23:18:52",
    "updated_at": "2020-12-21 21:20:20",
    "flag": 1,
    "wikiDataId": "Q29158",
    "country_id": 24
  },
  {
    "id": 3112,
    "name": "Kénédougou Province",
    "country_code": "BF",
    "fips_code": "54",
    "iso2": "KEN",
    "type": null,
    "latitude": 11.39193950,
    "longitude": -4.97665400,
    "created_at": "2019-10-05 23:18:52",
    "updated_at": "2020-12-21 21:20:21",
    "flag": 1,
    "wikiDataId": "Q1150901",
    "country_id": 35
  },
  {
    "id": 3113,
    "name": "Namentenga Province",
    "country_code": "BF",
    "fips_code": "64",
    "iso2": "NAM",
    "type": null,
    "latitude": 13.08125840,
    "longitude": -0.52578230,
    "created_at": "2019-10-05 23:18:52",
    "updated_at": "2020-12-21 21:20:21",
    "flag": 1,
    "wikiDataId": "Q1142044",
    "country_id": 35
  },
  {
    "id": 3114,
    "name": "Sahel Region",
    "country_code": "BF",
    "fips_code": "12",
    "iso2": "12",
    "type": null,
    "latitude": 14.10008650,
    "longitude": -0.14949880,
    "created_at": "2019-10-05 23:18:52",
    "updated_at": "2020-12-21 21:20:21",
    "flag": 1,
    "wikiDataId": "Q665514",
    "country_id": 35
  },
  {
    "id": 3115,
    "name": "Centre-Ouest Region",
    "country_code": "BF",
    "fips_code": "06",
    "iso2": "06",
    "type": null,
    "latitude": 11.87984660,
    "longitude": -2.30244600,
    "created_at": "2019-10-05 23:18:52",
    "updated_at": "2020-12-21 21:20:21",
    "flag": 1,
    "wikiDataId": "Q850075",
    "country_id": 35
  },
  {
    "id": 3116,
    "name": "Nahouri Province",
    "country_code": "BF",
    "fips_code": "65",
    "iso2": "NAO",
    "type": null,
    "latitude": 11.25022670,
    "longitude": -1.13530200,
    "created_at": "2019-10-05 23:18:52",
    "updated_at": "2020-12-21 21:20:21",
    "flag": 1,
    "wikiDataId": "Q1142003",
    "country_id": 35
  },
  {
    "id": 3117,
    "name": "Passoré Province",
    "country_code": "BF",
    "fips_code": "34",
    "iso2": "PAS",
    "type": null,
    "latitude": 12.88812210,
    "longitude": -2.22366670,
    "created_at": "2019-10-05 23:18:52",
    "updated_at": "2020-12-21 21:20:21",
    "flag": 1,
    "wikiDataId": "Q1142008",
    "country_id": 35
  },
  {
    "id": 3118,
    "name": "Zoundwéogo Province",
    "country_code": "BF",
    "fips_code": "44",
    "iso2": "ZOU",
    "type": null,
    "latitude": 11.61411740,
    "longitude": -0.98206680,
    "created_at": "2019-10-05 23:18:52",
    "updated_at": "2020-12-21 21:20:21",
    "flag": 1,
    "wikiDataId": "Q227059",
    "country_id": 35
  },
  {
    "id": 3119,
    "name": "Sissili Province",
    "country_code": "BF",
    "fips_code": "72",
    "iso2": "SIS",
    "type": null,
    "latitude": 11.24412190,
    "longitude": -2.22366670,
    "created_at": "2019-10-05 23:18:52",
    "updated_at": "2020-12-21 21:20:21",
    "flag": 1,
    "wikiDataId": "Q964281",
    "country_id": 35
  },
  {
    "id": 3120,
    "name": "Banwa Province",
    "country_code": "BF",
    "fips_code": "46",
    "iso2": "BAN",
    "type": null,
    "latitude": 12.13230530,
    "longitude": -4.15137640,
    "created_at": "2019-10-05 23:18:52",
    "updated_at": "2020-12-21 21:20:21",
    "flag": 1,
    "wikiDataId": "Q674664",
    "country_id": 35
  },
  {
    "id": 3121,
    "name": "Bougouriba Province",
    "country_code": "BF",
    "fips_code": "48",
    "iso2": "BGR",
    "type": null,
    "latitude": 10.87226460,
    "longitude": -3.33889170,
    "created_at": "2019-10-05 23:18:52",
    "updated_at": "2020-12-21 21:20:21",
    "flag": 1,
    "wikiDataId": "Q676641",
    "country_id": 35
  },
  {
    "id": 3122,
    "name": "Gnagna Province",
    "country_code": "BF",
    "fips_code": "21",
    "iso2": "GNA",
    "type": null,
    "latitude": 12.89749920,
    "longitude": 0.07467670,
    "created_at": "2019-10-05 23:18:52",
    "updated_at": "2020-12-21 21:20:21",
    "flag": 1,
    "wikiDataId": "Q1074144",
    "country_id": 35
  },
  {
    "id": 3123,
    "name": "Mouhoun",
    "country_code": "BF",
    "fips_code": "63",
    "iso2": "MOU",
    "type": null,
    "latitude": 12.14323810,
    "longitude": -3.33889170,
    "created_at": "2019-10-05 23:18:52",
    "updated_at": "2020-12-21 21:20:21",
    "flag": 1,
    "wikiDataId": "Q1142050",
    "country_id": 35
  },
  {
    "id": 3124,
    "name": "Yagha Province",
    "country_code": "BF",
    "fips_code": "75",
    "iso2": "YAG",
    "type": null,
    "latitude": 13.35761570,
    "longitude": 0.75328090,
    "created_at": "2019-10-05 23:18:52",
    "updated_at": "2020-12-21 21:20:21",
    "flag": 1,
    "wikiDataId": "Q1074466",
    "country_id": 35
  },
  {
    "id": 3125,
    "name": "Plateau-Central Region",
    "country_code": "BF",
    "fips_code": "11",
    "iso2": "11",
    "type": null,
    "latitude": 12.25376480,
    "longitude": -0.75328090,
    "created_at": "2019-10-05 23:18:52",
    "updated_at": "2020-12-21 21:20:21",
    "flag": 1,
    "wikiDataId": "Q862606",
    "country_id": 35
  },
  {
    "id": 3126,
    "name": "Sanmatenga Province",
    "country_code": "BF",
    "fips_code": "70",
    "iso2": "SMT",
    "type": null,
    "latitude": 13.35653040,
    "longitude": -1.05861350,
    "created_at": "2019-10-05 23:18:52",
    "updated_at": "2020-12-21 21:20:21",
    "flag": 1,
    "wikiDataId": "Q1142039",
    "country_id": 35
  },
  {
    "id": 3127,
    "name": "Centre-Nord Region",
    "country_code": "BF",
    "fips_code": "05",
    "iso2": "05",
    "type": null,
    "latitude": 13.17244640,
    "longitude": -0.90566230,
    "created_at": "2019-10-05 23:18:52",
    "updated_at": "2020-12-21 21:20:21",
    "flag": 1,
    "wikiDataId": "Q850064",
    "country_id": 35
  },
  {
    "id": 3128,
    "name": "Tapoa Province",
    "country_code": "BF",
    "fips_code": "42",
    "iso2": "TAP",
    "type": null,
    "latitude": 12.24970720,
    "longitude": 1.67606910,
    "created_at": "2019-10-05 23:18:52",
    "updated_at": "2020-12-21 21:20:21",
    "flag": 1,
    "wikiDataId": "Q621983",
    "country_id": 35
  },
  {
    "id": 3129,
    "name": "Houet Province",
    "country_code": "BF",
    "fips_code": "51",
    "iso2": "HOU",
    "type": null,
    "latitude": 11.13204470,
    "longitude": -4.23333550,
    "created_at": "2019-10-05 23:18:52",
    "updated_at": "2020-12-21 21:20:21",
    "flag": 1,
    "wikiDataId": "Q1074161",
    "country_id": 35
  },
  {
    "id": 3130,
    "name": "Zondoma Province",
    "country_code": "BF",
    "fips_code": "78",
    "iso2": "ZON",
    "type": null,
    "latitude": 13.11659260,
    "longitude": -2.42087130,
    "created_at": "2019-10-05 23:18:52",
    "updated_at": "2020-12-21 21:20:21",
    "flag": 1,
    "wikiDataId": "Q219859",
    "country_id": 35
  },
  {
    "id": 3131,
    "name": "Boulgou",
    "country_code": "BF",
    "fips_code": "49",
    "iso2": "BLG",
    "type": null,
    "latitude": 11.43367660,
    "longitude": -0.37483540,
    "created_at": "2019-10-05 23:18:52",
    "updated_at": "2020-12-21 21:20:21",
    "flag": 1,
    "wikiDataId": "Q895097",
    "country_id": 35
  },
  {
    "id": 3132,
    "name": "Komondjari Province",
    "country_code": "BF",
    "fips_code": "56",
    "iso2": "KMD",
    "type": null,
    "latitude": 12.71265270,
    "longitude": 0.67730460,
    "created_at": "2019-10-05 23:18:52",
    "updated_at": "2020-12-21 21:20:21",
    "flag": 1,
    "wikiDataId": "Q1074479",
    "country_id": 35
  },
  {
    "id": 3133,
    "name": "Koulpélogo Province",
    "country_code": "BF",
    "fips_code": "59",
    "iso2": "KOP",
    "type": null,
    "latitude": 11.52476740,
    "longitude": 0.14949880,
    "created_at": "2019-10-05 23:18:52",
    "updated_at": "2020-12-21 21:20:21",
    "flag": 1,
    "wikiDataId": "Q934923",
    "country_id": 35
  },
  {
    "id": 3134,
    "name": "Tuy Province",
    "country_code": "BF",
    "fips_code": "74",
    "iso2": "TUI",
    "type": null,
    "latitude": 38.88868400,
    "longitude": -77.00471900,
    "created_at": "2019-10-05 23:18:52",
    "updated_at": "2020-12-21 21:20:21",
    "flag": 1,
    "wikiDataId": "Q627844",
    "country_id": 35
  },
  {
    "id": 3135,
    "name": "Ioba Province",
    "country_code": "BF",
    "fips_code": "52",
    "iso2": "IOB",
    "type": null,
    "latitude": 11.05620340,
    "longitude": -3.01757120,
    "created_at": "2019-10-05 23:18:52",
    "updated_at": "2020-12-21 21:20:21",
    "flag": 1,
    "wikiDataId": "Q1074154",
    "country_id": 35
  },
  {
    "id": 3136,
    "name": "Centre",
    "country_code": "BF",
    "fips_code": "03",
    "iso2": "03",
    "type": null,
    "latitude": null,
    "longitude": null,
    "created_at": "2019-10-05 23:18:52",
    "updated_at": "2019-10-05 23:18:52",
    "flag": 1,
    "wikiDataId": "Q515655",
    "country_id": 35
  },
  {
    "id": 3137,
    "name": "Sourou Province",
    "country_code": "BF",
    "fips_code": "73",
    "iso2": "SOR",
    "type": null,
    "latitude": 13.34180300,
    "longitude": -2.93757390,
    "created_at": "2019-10-05 23:18:52",
    "updated_at": "2020-12-21 21:20:21",
    "flag": 1,
    "wikiDataId": "Q558703",
    "country_id": 35
  },
  {
    "id": 3138,
    "name": "Boucle du Mouhoun Region",
    "country_code": "BF",
    "fips_code": "01",
    "iso2": "01",
    "type": null,
    "latitude": 12.41660000,
    "longitude": -3.41955270,
    "created_at": "2019-10-05 23:18:52",
    "updated_at": "2020-12-21 21:20:21",
    "flag": 1,
    "wikiDataId": "Q527093",
    "country_id": 35
  },
  {
    "id": 3139,
    "name": "Séno Province",
    "country_code": "BF",
    "fips_code": "71",
    "iso2": "SEN",
    "type": null,
    "latitude": 14.00722340,
    "longitude": -0.07467670,
    "created_at": "2019-10-05 23:18:52",
    "updated_at": "2020-12-21 21:20:21",
    "flag": 1,
    "wikiDataId": "Q1061214",
    "country_id": 35
  },
  {
    "id": 3140,
    "name": "Sud-Ouest Region",
    "country_code": "BF",
    "fips_code": "13",
    "iso2": "13",
    "type": null,
    "latitude": 10.42314930,
    "longitude": -3.25836260,
    "created_at": "2019-10-05 23:18:52",
    "updated_at": "2020-12-21 21:20:21",
    "flag": 1,
    "wikiDataId": "Q429149",
    "country_id": 35
  },
  {
    "id": 3141,
    "name": "Oubritenga Province",
    "country_code": "BF",
    "fips_code": "68",
    "iso2": "OUB",
    "type": null,
    "latitude": 12.70960870,
    "longitude": -1.44346900,
    "created_at": "2019-10-05 23:18:52",
    "updated_at": "2020-12-21 21:20:21",
    "flag": 1,
    "wikiDataId": "Q1142026",
    "country_id": 35
  },
  {
    "id": 3142,
    "name": "Nayala Province",
    "country_code": "BF",
    "fips_code": "66",
    "iso2": "NAY",
    "type": null,
    "latitude": 12.69645580,
    "longitude": -3.01757120,
    "created_at": "2019-10-05 23:18:52",
    "updated_at": "2020-12-21 21:20:21",
    "flag": 1,
    "wikiDataId": "Q1141776",
    "country_id": 35
  },
  {
    "id": 3143,
    "name": "Gourma Province",
    "country_code": "BF",
    "fips_code": "50",
    "iso2": "GOU",
    "type": null,
    "latitude": 12.16244730,
    "longitude": 0.67730460,
    "created_at": "2019-10-05 23:18:52",
    "updated_at": "2020-12-21 21:20:21",
    "flag": 1,
    "wikiDataId": "Q432317",
    "country_id": 35
  },
  {
    "id": 3144,
    "name": "Oudalan Province",
    "country_code": "BF",
    "fips_code": "33",
    "iso2": "OUD",
    "type": null,
    "latitude": 14.47190200,
    "longitude": -0.45023680,
    "created_at": "2019-10-05 23:18:52",
    "updated_at": "2020-12-21 21:20:21",
    "flag": 1,
    "wikiDataId": "Q514173",
    "country_id": 35
  },
  {
    "id": 3145,
    "name": "Ziro Province",
    "country_code": "BF",
    "fips_code": "77",
    "iso2": "ZIR",
    "type": null,
    "latitude": 11.60949950,
    "longitude": -1.90992380,
    "created_at": "2019-10-05 23:18:52",
    "updated_at": "2020-12-21 21:20:21",
    "flag": 1,
    "wikiDataId": "Q206019",
    "country_id": 35
  },
  {
    "id": 3146,
    "name": "Kossi Province",
    "country_code": "BF",
    "fips_code": "58",
    "iso2": "KOS",
    "type": null,
    "latitude": 12.96045800,
    "longitude": -3.90626880,
    "created_at": "2019-10-05 23:18:52",
    "updated_at": "2020-12-21 21:20:21",
    "flag": 1,
    "wikiDataId": "Q1074485",
    "country_id": 35
  },
  {
    "id": 3147,
    "name": "Kourwéogo Province",
    "country_code": "BF",
    "fips_code": "60",
    "iso2": "KOW",
    "type": null,
    "latitude": 12.70774950,
    "longitude": -1.75388170,
    "created_at": "2019-10-05 23:18:52",
    "updated_at": "2020-12-21 21:20:21",
    "flag": 1,
    "wikiDataId": "Q661376",
    "country_id": 35
  },
  {
    "id": 3148,
    "name": "Ganzourgou Province",
    "country_code": "BF",
    "fips_code": "20",
    "iso2": "GAN",
    "type": null,
    "latitude": 12.25376480,
    "longitude": -0.75328090,
    "created_at": "2019-10-05 23:18:52",
    "updated_at": "2020-12-21 21:20:21",
    "flag": 1,
    "wikiDataId": "Q182889",
    "country_id": 35
  },
  {
    "id": 3149,
    "name": "Centre-Sud Region",
    "country_code": "BF",
    "fips_code": "07",
    "iso2": "07",
    "type": null,
    "latitude": 11.52289110,
    "longitude": -1.05861350,
    "created_at": "2019-10-05 23:18:52",
    "updated_at": "2020-12-21 21:20:21",
    "flag": 1,
    "wikiDataId": "Q853405",
    "country_id": 35
  },
  {
    "id": 3150,
    "name": "Yatenga Province",
    "country_code": "BF",
    "fips_code": "76",
    "iso2": "YAT",
    "type": null,
    "latitude": 13.62493440,
    "longitude": -2.38136210,
    "created_at": "2019-10-05 23:18:52",
    "updated_at": "2020-12-21 21:20:21",
    "flag": 1,
    "wikiDataId": "Q1074521",
    "country_id": 35
  },
  {
    "id": 3151,
    "name": "Loroum Province",
    "country_code": "BF",
    "fips_code": "62",
    "iso2": "LOR",
    "type": null,
    "latitude": 13.81298140,
    "longitude": -2.06651970,
    "created_at": "2019-10-05 23:18:52",
    "updated_at": "2020-12-21 21:20:21",
    "flag": 1,
    "wikiDataId": "Q1142054",
    "country_id": 35
  },
  {
    "id": 3152,
    "name": "Bazèga Province",
    "country_code": "BF",
    "fips_code": "47",
    "iso2": "BAZ",
    "type": null,
    "latitude": 11.97676920,
    "longitude": -1.44346900,
    "created_at": "2019-10-05 23:18:52",
    "updated_at": "2020-12-21 21:20:21",
    "flag": 1,
    "wikiDataId": "Q619764",
    "country_id": 35
  },
  {
    "id": 3153,
    "name": "Cascades Region",
    "country_code": "BF",
    "fips_code": "02",
    "iso2": "02",
    "type": null,
    "latitude": 10.40729920,
    "longitude": -4.56244260,
    "created_at": "2019-10-05 23:18:52",
    "updated_at": "2020-12-21 21:20:21",
    "flag": 1,
    "wikiDataId": "Q850043",
    "country_id": 35
  },
  {
    "id": 3154,
    "name": "Sanguié Province",
    "country_code": "BF",
    "fips_code": "36",
    "iso2": "SNG",
    "type": null,
    "latitude": 12.15018610,
    "longitude": -2.69838680,
    "created_at": "2019-10-05 23:18:52",
    "updated_at": "2020-12-21 21:20:21",
    "flag": 1,
    "wikiDataId": "Q1142014",
    "country_id": 35
  },
  {
    "id": 3155,
    "name": "Bam Province",
    "country_code": "BF",
    "fips_code": "15",
    "iso2": "BAM",
    "type": null,
    "latitude": 13.44613300,
    "longitude": -1.59839590,
    "created_at": "2019-10-05 23:18:52",
    "updated_at": "2020-12-21 21:20:21",
    "flag": 1,
    "wikiDataId": "Q620710",
    "country_id": 35
  },
  {
    "id": 3156,
    "name": "Noumbiel Province",
    "country_code": "BF",
    "fips_code": "67",
    "iso2": "NOU",
    "type": null,
    "latitude": 9.84409460,
    "longitude": -2.97755580,
    "created_at": "2019-10-05 23:18:52",
    "updated_at": "2020-12-21 21:20:21",
    "flag": 1,
    "wikiDataId": "Q646647",
    "country_id": 35
  },
  {
    "id": 3157,
    "name": "Kompienga Province",
    "country_code": "BF",
    "fips_code": "57",
    "iso2": "KMP",
    "type": null,
    "latitude": 11.52383620,
    "longitude": 0.75328090,
    "created_at": "2019-10-05 23:18:52",
    "updated_at": "2020-12-21 21:20:21",
    "flag": 1,
    "wikiDataId": "Q1142059",
    "country_id": 35
  },
  {
    "id": 3158,
    "name": "Est Region",
    "country_code": "BF",
    "fips_code": "57",
    "iso2": "08",
    "type": null,
    "latitude": 12.43655260,
    "longitude": 0.90566230,
    "created_at": "2019-10-05 23:18:52",
    "updated_at": "2020-12-21 21:20:21",
    "flag": 1,
    "wikiDataId": "Q850088",
    "country_id": 35
  },
  {
    "id": 3159,
    "name": "Léraba Province",
    "country_code": "BF",
    "fips_code": "61",
    "iso2": "LER",
    "type": null,
    "latitude": 10.66487850,
    "longitude": -5.31025050,
    "created_at": "2019-10-05 23:18:53",
    "updated_at": "2020-12-21 21:20:21",
    "flag": 1,
    "wikiDataId": "Q977607",
    "country_id": 35
  },
  {
    "id": 3160,
    "name": "Balé Province",
    "country_code": "BF",
    "fips_code": "45",
    "iso2": "BAL",
    "type": null,
    "latitude": 11.78206020,
    "longitude": -3.01757120,
    "created_at": "2019-10-05 23:18:53",
    "updated_at": "2020-12-21 21:20:21",
    "flag": 1,
    "wikiDataId": "Q805913",
    "country_id": 35
  },
  {
    "id": 3161,
    "name": "Kouritenga Province",
    "country_code": "BF",
    "fips_code": "28",
    "iso2": "KOT",
    "type": null,
    "latitude": 12.16318130,
    "longitude": -0.22446620,
    "created_at": "2019-10-05 23:18:53",
    "updated_at": "2020-12-21 21:20:21",
    "flag": 1,
    "wikiDataId": "Q1141767",
    "country_id": 35
  },
  {
    "id": 3162,
    "name": "Centre-Est Region",
    "country_code": "BF",
    "fips_code": "28",
    "iso2": "04",
    "type": null,
    "latitude": 11.52476740,
    "longitude": -0.14949880,
    "created_at": "2019-10-05 23:18:53",
    "updated_at": "2020-12-21 21:20:21",
    "flag": 1,
    "wikiDataId": "Q543006",
    "country_id": 35
  },
  {
    "id": 3163,
    "name": "Poni Province",
    "country_code": "BF",
    "fips_code": "69",
    "iso2": "PON",
    "type": null,
    "latitude": 10.33259960,
    "longitude": -3.33889170,
    "created_at": "2019-10-05 23:18:53",
    "updated_at": "2020-12-21 21:20:21",
    "flag": 1,
    "wikiDataId": "Q953657",
    "country_id": 35
  },
  {
    "id": 3164,
    "name": "Nord Region, Burkina Faso",
    "country_code": "BF",
    "fips_code": "69",
    "iso2": "10",
    "type": null,
    "latitude": 13.71825200,
    "longitude": -2.30244600,
    "created_at": "2019-10-05 23:18:53",
    "updated_at": "2020-12-21 21:20:21",
    "flag": 1,
    "wikiDataId": "Q502320",
    "country_id": 35
  },
  {
    "id": 3165,
    "name": "Hauts-Bassins Region",
    "country_code": "BF",
    "fips_code": "09",
    "iso2": "09",
    "type": null,
    "latitude": 11.49420030,
    "longitude": -4.23333550,
    "created_at": "2019-10-05 23:18:53",
    "updated_at": "2020-12-21 21:20:21",
    "flag": 1,
    "wikiDataId": "Q845303",
    "country_id": 35
  },
  {
    "id": 3166,
    "name": "Soum Province",
    "country_code": "BF",
    "fips_code": "40",
    "iso2": "SOM",
    "type": null,
    "latitude": 14.09628410,
    "longitude": -1.36621600,
    "created_at": "2019-10-05 23:18:53",
    "updated_at": "2020-12-21 21:20:21",
    "flag": 1,
    "wikiDataId": "Q385973",
    "country_id": 35
  },
  {
    "id": 3167,
    "name": "Comoé Province",
    "country_code": "BF",
    "fips_code": "55",
    "iso2": "COM",
    "type": null,
    "latitude": 10.40729920,
    "longitude": -4.56244260,
    "created_at": "2019-10-05 23:18:53",
    "updated_at": "2020-12-21 21:20:21",
    "flag": 1,
    "wikiDataId": "Q1074496",
    "country_id": 35
  },
  {
    "id": 3168,
    "name": "Kadiogo Province",
    "country_code": "BF",
    "fips_code": "53",
    "iso2": "KAD",
    "type": null,
    "latitude": 12.34258970,
    "longitude": -1.44346900,
    "created_at": "2019-10-05 23:18:53",
    "updated_at": "2020-12-21 21:20:21",
    "flag": 1,
    "wikiDataId": "Q1074530",
    "country_id": 35
  },
  {
    "id": 3570,
    "name": "Moyen-Chari Region",
    "country_code": "TD",
    "fips_code": "17",
    "iso2": "MC",
    "type": null,
    "latitude": 9.06399980,
    "longitude": 18.42760470,
    "created_at": "2019-10-05 23:18:55",
    "updated_at": "2020-12-21 21:20:21",
    "flag": 1,
    "wikiDataId": "Q177799",
    "country_id": 43
  },
  {
    "id": 3571,
    "name": "Mayo-Kebbi Ouest Region",
    "country_code": "TD",
    "fips_code": "20",
    "iso2": "MO",
    "type": null,
    "latitude": 10.41130140,
    "longitude": 15.59433880,
    "created_at": "2019-10-05 23:18:55",
    "updated_at": "2020-12-21 21:20:21",
    "flag": 1,
    "wikiDataId": "Q910393",
    "country_id": 43
  },
  {
    "id": 3572,
    "name": "Sila Region",
    "country_code": "TD",
    "fips_code": "25",
    "iso2": "SI",
    "type": null,
    "latitude": 12.13074000,
    "longitude": 21.28450250,
    "created_at": "2019-10-05 23:18:55",
    "updated_at": "2020-12-21 21:20:21",
    "flag": 1,
    "wikiDataId": "Q1149611",
    "country_id": 43
  },
  {
    "id": 3573,
    "name": "Hadjer-Lamis",
    "country_code": "TD",
    "fips_code": "18",
    "iso2": "HL",
    "type": null,
    "latitude": 12.45772730,
    "longitude": 16.72346390,
    "created_at": "2019-10-05 23:18:55",
    "updated_at": "2020-12-21 21:20:21",
    "flag": 1,
    "wikiDataId": "Q1042437",
    "country_id": 43
  },
  {
    "id": 3574,
    "name": "Borkou",
    "country_code": "TD",
    "fips_code": "23",
    "iso2": "BO",
    "type": null,
    "latitude": 17.86888450,
    "longitude": 18.80761950,
    "created_at": "2019-10-05 23:18:55",
    "updated_at": "2020-12-21 21:20:21",
    "flag": 1,
    "wikiDataId": "Q1139666",
    "country_id": 43
  },
  {
    "id": 3575,
    "name": "Ennedi-Est",
    "country_code": "TD",
    "fips_code": "27",
    "iso2": "EE",
    "type": null,
    "latitude": 16.34204960,
    "longitude": 23.00119890,
    "created_at": "2019-10-05 23:18:55",
    "updated_at": "2020-12-21 21:20:21",
    "flag": 1,
    "wikiDataId": "Q16632169",
    "country_id": 43
  },
  {
    "id": 3576,
    "name": "Guéra Region",
    "country_code": "TD",
    "fips_code": "05",
    "iso2": "GR",
    "type": null,
    "latitude": 11.12190150,
    "longitude": 18.42760470,
    "created_at": "2019-10-05 23:18:55",
    "updated_at": "2020-12-21 21:20:21",
    "flag": 1,
    "wikiDataId": "Q175706",
    "country_id": 43
  },
  {
    "id": 3577,
    "name": "Lac Region",
    "country_code": "TD",
    "fips_code": "07",
    "iso2": "LC",
    "type": null,
    "latitude": 13.69153770,
    "longitude": 14.10013260,
    "created_at": "2019-10-05 23:18:55",
    "updated_at": "2020-12-21 21:20:21",
    "flag": 1,
    "wikiDataId": "Q867869",
    "country_id": 43
  },
  {
    "id": 3578,
    "name": "Ennedi Region",
    "country_code": "TD",
    "fips_code": "07",
    "iso2": "EN",
    "type": null,
    "latitude": 17.54145780,
    "longitude": 21.85685860,
    "created_at": "2019-10-05 23:18:55",
    "updated_at": "2020-12-21 21:20:21",
    "flag": 1,
    "wikiDataId": "Q748093",
    "country_id": 43
  },
  {
    "id": 3579,
    "name": "Tandjilé Region",
    "country_code": "TD",
    "fips_code": "14",
    "iso2": "TA",
    "type": null,
    "latitude": 9.66257290,
    "longitude": 16.72346390,
    "created_at": "2019-10-05 23:18:55",
    "updated_at": "2020-12-21 21:20:21",
    "flag": 1,
    "wikiDataId": "Q867856",
    "country_id": 43
  },
  {
    "id": 3580,
    "name": "Mayo-Kebbi Est Region",
    "country_code": "TD",
    "fips_code": "16",
    "iso2": "ME",
    "type": null,
    "latitude": 9.40460390,
    "longitude": 14.84546190,
    "created_at": "2019-10-05 23:18:55",
    "updated_at": "2020-12-21 21:20:21",
    "flag": 1,
    "wikiDataId": "Q911421",
    "country_id": 43
  },
  {
    "id": 3581,
    "name": "Wadi Fira Region",
    "country_code": "TD",
    "fips_code": "02",
    "iso2": "WF",
    "type": null,
    "latitude": 15.08924160,
    "longitude": 21.47528510,
    "created_at": "2019-10-05 23:18:55",
    "updated_at": "2020-12-21 21:20:21",
    "flag": 1,
    "wikiDataId": "Q860813",
    "country_id": 43
  },
  {
    "id": 3582,
    "name": "Ouaddaï Region",
    "country_code": "TD",
    "fips_code": "12",
    "iso2": "OD",
    "type": null,
    "latitude": 13.74847600,
    "longitude": 20.71224650,
    "created_at": "2019-10-05 23:18:55",
    "updated_at": "2020-12-21 21:20:21",
    "flag": 1,
    "wikiDataId": "Q841338",
    "country_id": 43
  },
  {
    "id": 3583,
    "name": "Bahr el Gazel",
    "country_code": "TD",
    "fips_code": "22",
    "iso2": "BG",
    "type": null,
    "latitude": 14.77022660,
    "longitude": 16.91225100,
    "created_at": "2019-10-05 23:18:55",
    "updated_at": "2020-12-21 21:20:21",
    "flag": 1,
    "wikiDataId": "Q1050621",
    "country_id": 43
  },
  {
    "id": 3584,
    "name": "Ennedi-Ouest",
    "country_code": "TD",
    "fips_code": "28",
    "iso2": "EO",
    "type": null,
    "latitude": 18.97756300,
    "longitude": 21.85685860,
    "created_at": "2019-10-05 23:18:55",
    "updated_at": "2020-12-21 21:20:21",
    "flag": 1,
    "wikiDataId": "Q16632172",
    "country_id": 43
  },
  {
    "id": 3585,
    "name": "Logone Occidental Region",
    "country_code": "TD",
    "fips_code": "08",
    "iso2": "LO",
    "type": null,
    "latitude": 8.75967600,
    "longitude": 15.87600400,
    "created_at": "2019-10-05 23:18:55",
    "updated_at": "2020-12-21 21:20:21",
    "flag": 1,
    "wikiDataId": "Q305257",
    "country_id": 43
  },
  {
    "id": 3586,
    "name": "N'Djamena",
    "country_code": "TD",
    "fips_code": "21",
    "iso2": "ND",
    "type": null,
    "latitude": 12.13484570,
    "longitude": 15.05574150,
    "created_at": "2019-10-05 23:18:55",
    "updated_at": "2020-12-21 21:20:21",
    "flag": 1,
    "wikiDataId": "Q3659",
    "country_id": 43
  },
  {
    "id": 3587,
    "name": "Tibesti Region",
    "country_code": "TD",
    "fips_code": "26",
    "iso2": "TI",
    "type": null,
    "latitude": 21.36500310,
    "longitude": 16.91225100,
    "created_at": "2019-10-05 23:18:55",
    "updated_at": "2020-12-21 21:20:21",
    "flag": 1,
    "wikiDataId": "Q737711",
    "country_id": 43
  },
  {
    "id": 3588,
    "name": "Kanem Region",
    "country_code": "TD",
    "fips_code": "06",
    "iso2": "KA",
    "type": null,
    "latitude": 14.87812620,
    "longitude": 15.40680790,
    "created_at": "2019-10-05 23:18:55",
    "updated_at": "2020-12-21 21:20:21",
    "flag": 1,
    "wikiDataId": "Q849841",
    "country_id": 43
  },
  {
    "id": 3589,
    "name": "Mandoul Region",
    "country_code": "TD",
    "fips_code": "19",
    "iso2": "MA",
    "type": null,
    "latitude": 8.60309100,
    "longitude": 17.47951730,
    "created_at": "2019-10-05 23:18:55",
    "updated_at": "2020-12-21 21:20:21",
    "flag": 1,
    "wikiDataId": "Q597410",
    "country_id": 43
  },
  {
    "id": 3590,
    "name": "Batha Region",
    "country_code": "TD",
    "fips_code": "01",
    "iso2": "BA",
    "type": null,
    "latitude": 13.93717750,
    "longitude": 18.42760470,
    "created_at": "2019-10-05 23:18:55",
    "updated_at": "2020-12-21 21:20:21",
    "flag": 1,
    "wikiDataId": "Q180414",
    "country_id": 43
  },
  {
    "id": 3591,
    "name": "Logone Oriental Region",
    "country_code": "TD",
    "fips_code": "09",
    "iso2": "LR",
    "type": null,
    "latitude": 8.31499490,
    "longitude": 16.34637910,
    "created_at": "2019-10-05 23:18:55",
    "updated_at": "2020-12-21 21:20:21",
    "flag": 1,
    "wikiDataId": "Q167514",
    "country_id": 43
  },
  {
    "id": 3592,
    "name": "Salamat Region",
    "country_code": "TD",
    "fips_code": "13",
    "iso2": "SA",
    "type": null,
    "latitude": 10.96916010,
    "longitude": 20.71224650,
    "created_at": "2019-10-05 23:18:55",
    "updated_at": "2020-12-21 21:20:21",
    "flag": 1,
    "wikiDataId": "Q385584",
    "country_id": 43
  }
]